CAMERA  0/0/0/7
0 0 0 0 0 0 0 0 0 0 0
0 0 0 0 0 0 0 0 0 0 0
0 0 6 18 6 0 7 19 7 0 0
0 0 18 0 19 0 18 0 19 0 0
0 0 6 18 20 18 20 18 7 0 0
0 0 0 0 19 0 19 0 0 0 0
0 0 5 18 20 18 20 18 8 0 0
0 0 19 0 18 0 18 0 18 0 0
0 0 5 19 5 0 8 18 8 0 0
0 0 0 0 0 0 0 0 0 0 0
0 0 0 0 0 0 0 0 0 0 0