CAMERA  0.86/-1.4/0/5
0 0 0 0 0 0 0 0 0 0 0
0 0 0 0 0 0 0 0 0 0 0
0 0 0 0 0 0 0 0 0 0 0
0 0 0 0 0 0 0 0 0 0 0
0 0 0 0 0 0 0 0 0 0 0
0 0 0 0 0 0 6 18 6 0 0
0 0 0 0 0 0 7 7 18 0 0
0 0 0 0 6 5 0 7 8 0 0
0 0 0 0 19 5 5 0 0 0 0
0 0 0 0 8 19 8 0 0 0 0
0 0 0 0 0 0 0 0 0 0 0