CAMERA  0/0/0/10.5
8 12 19 19 10 19 10 19 19 12 5
11 13 6 7 13 19 13 6 7 13 9
18 5 13 12 6 0 7 12 13 8 18
18 6 9 0 0 0 0 0 11 7 18
9 13 6 0 0 0 0 0 7 13 11
18 18 0 0 0 0 0 0 0 18 18
9 13 5 0 0 0 0 0 8 13 11
18 5 9 0 0 0 0 0 11 8 18
18 6 13 10 5 0 8 10 13 7 18
11 13 5 8 13 19 13 5 8 13 9
7 10 19 19 12 19 12 19 19 10 6