CAMERA  0/0/0/8.7
0 0 0 0 0 0 0 0 0 0 0
0 6 18 18 18 10 18 18 18 7 0
0 19 6 18 18 11 18 18 7 19 0
0 19 19 6 18 12 18 7 19 19 0
0 19 19 19 6 9 7 19 19 19 0
0 11 12 9 10 0 9 12 11 10 0
0 19 19 19 5 11 8 19 19 19 0
0 19 19 5 18 9 18 8 19 19 0
0 19 5 18 18 12 18 18 8 19 0
0 5 18 18 18 10 18 18 18 8 0
0 0 0 0 0 0 0 0 0 0 0