CAMERA  0/0/0/7
0 0 0 0 0 0 0 0 0 0 0
0 0 6 19 12 19 12 19 7 0 0
0 0 18 6 12 12 12 7 18 0 0
0 0 12 12 6 12 7 12 12 0 0
0 0 18 5 9 0 9 8 18 0 0
0 0 9 19 9 0 9 19 9 0 0
0 0 18 6 9 0 9 7 18 0 0
0 0 12 12 5 12 8 12 12 0 0
0 0 18 5 12 12 12 8 18 0 0
0 0 5 19 12 19 12 19 8 0 0
0 0 0 0 0 0 0 0 0 0 0