CAMERA  -0.86/0.86/0/5
0 0 0 0 0 0 0 0 0 0 0
0 0 0 0 0 0 0 0 0 0 0
0 0 8 8 0 7 7 0 0 0 0
0 0 8 11 0 11 7 0 0 0 0
0 0 0 9 18 12 0 0 0 0 0
0 0 5 11 0 11 6 0 0 0 0
0 0 5 5 0 6 6 0 0 0 0
0 0 0 0 0 0 0 0 0 0 0
0 0 0 0 0 0 0 0 0 0 0
0 0 0 0 0 0 0 0 0 0 0
0 0 0 0 0 0 0 0 0 0 0